…
---

    Code
      dat_t_
    Output
        TAG_ID      MAKE                    MODEL
      1 JS7977 Star Oddi DST (centi/milli)-(TD/F)

# DataMap_StarOddi_DST_InstantSensorData

    Code
      dat_
    Output
      # A tibble: 45,369 x 3
         `Date & Time` `Temp(°C)` `Depth(m)`
                 <dbl>      <dbl>      <dbl>
       1        42564.       24.8      -1.1 
       2        42564.       24.0      -1.58
       3        42564.       23.4      -1.1 
       4        42564.       23.0      -1.1 
       5        42564.       22.6      -1.1 
       6        42564.       22.4      -0.62
       7        42564.       22.2      -1.1 
       8        42564.       22.0      -1.58
       9        42564.       21.9      -1.1 
      10        42564.       21.7      -1.1 
      # i 45,359 more rows

---

    Code
      dat_t_
    Output
      # A tibble: 45,369 x 3
         TIMESTAMP           DEPTH TEMPERATURE
         <dttm>                [m]        [°C]
       1 2016-07-12 21:20:00  1.1         24.8
       2 2016-07-12 22:20:00  1.58        24.0
       3 2016-07-12 23:19:59  1.1         23.4
       4 2016-07-13 00:20:00  1.1         23.0
       5 2016-07-13 01:20:00  1.1         22.6
       6 2016-07-13 02:19:59  0.62        22.4
       7 2016-07-13 03:20:00  1.1         22.2
       8 2016-07-13 04:20:00  1.58        22.0
       9 2016-07-13 05:19:59  1.1         21.9
      10 2016-07-13 06:20:00  1.1         21.7
      # i 45,359 more rows
…
---

    Code
      dat_t_
    Output
        TAG_ID      MAKE                    MODEL
      1  JS142 Star Oddi DST (centi/milli)-(TD/F)

# DataMap_StarOddi_DSTmilliF_InstantSensorData

    Code
      dat_
    Output
      # A tibble: 108,889 x 3
         `Date & Time` `Temp(°C)` `Depth(m)`
                 <dbl>      <dbl>      <dbl>
       1        42209.       14.0       10.2
       2        42209.       14.0       10.2
       3        42209.       14.0       10.2
       4        42209.       14.1       10.2
       5        42209.       14.1       10.5
       6        42209.       14.2       10.0
       7        42209.       14.2       10.3
       8        42209.       14.2       10.3
       9        42209.       14.2       10.0
      10        42209.       14.3       10.0
      # i 108,879 more rows

---

    Code
      dat_t_
    Output
      # A tibble: 108,889 x 3
         TIMESTAMP           DEPTH TEMPERATURE
         <dttm>                [m]        [°C]
       1 2015-07-24 10:00:00 -10.2        14.0
       2 2015-07-24 10:02:00 -10.2        14.0
       3 2015-07-24 10:03:59 -10.2        14.0
       4 2015-07-24 10:05:59 -10.2        14.1
       5 2015-07-24 10:07:59 -10.5        14.1
       6 2015-07-24 10:09:59 -10.0        14.2
       7 2015-07-24 10:12:00 -10.3        14.2
       8 2015-07-24 10:14:00 -10.3        14.2
       9 2015-07-24 10:16:00 -10.0        14.2
      10 2015-07-24 10:18:00 -10.0        14.3
      # i 108,879 more rows

---

    Code
      dat_
    Output
      # A tibble: 697,833 x 3
         `Date & Time` `Temp(°C)` `Depth(m)`
                 <dbl>      <dbl>      <dbl>
       1        42152.      11.1        7.82
       2        42152.      10.7       27.0 
       3        42152.       9.87      22.3 
       4        42152.       9.47      17.7 
       5        42152.       9.77      16.5 
       6        42152.      10         18.1 
       7        42152.      10         17.4 
       8        42152.      10.1       18.1 
       9        42152.      10.2       15.5 
      10        42152.      10.2       18.1 
      # i 697,823 more rows

---

    Code
      dat_t_
    Output
      # A tibble: 697,833 x 3
         TIMESTAMP            DEPTH TEMPERATURE
         <dttm>                 [m]        [°C]
       1 2015-05-27 15:17:59  -7.82       11.1 
       2 2015-05-27 15:20:00 -27.0        10.7 
       3 2015-05-27 15:22:00 -22.3         9.87
       4 2015-05-27 15:24:00 -17.7         9.47
       5 2015-05-27 15:26:00 -16.5         9.77
       6 2015-05-27 15:27:59 -18.1        10   
       7 2015-05-27 15:29:59 -17.4        10   
       8 2015-05-27 15:31:59 -18.1        10.1 
       9 2015-05-27 15:33:59 -15.5        10.2 
      10 2015-05-27 15:36:00 -18.1        10.2 
      # i 697,823 more rows
…
---

    Code
      dat_t_
    Output
        TAG_ID      MAKE        MODEL
      1  JS927 Star Oddi DST magnetic

# DataMap_StarOddi_DSTmagnetic_InstantSensorData

    Code
      dat_
    Output
      # A tibble: 5,381 x 12
         `Date & Time` `Temperature(°C)` `Depth(m)` `Tilt-X(°)` `Tilt-Y(°)`
                 <dbl>             <dbl>      <dbl>       <dbl>       <dbl>
       1        42342.              5.44       12.9          -6         -22
       2        42342.              6.08       13.5          -6         -27
       3        42342.              5.97       12.6          -7         -28
       4        42342               5.76       12.3          -6         -25
       5        42342.              4.83       13.1          -8         -27
       6        42342.              4.46       12.7          -7         -24
       7        42342.              4.72       13            -7         -28
       8        42343.              5.58       12.2          -7         -25
       9        42343.              6.33       12.9          -8         -27
      10        42343               6.22       12.8          -7         -28
      # i 5,371 more rows
      # i 7 more variables: `Tilt-Z(°)` <dbl>, `Comp.Head(°)` <dbl>,
      #   `Comp.4p(°)` <dbl>, `Inclination(°)` <dbl>, `Mag.vec(nT)` <dbl>,
      #   ...11 <dbl>, ...12 <dbl>

---

    Code
      dat_t_
    Output
      # A tibble: 5,381 x 7
         TIMESTAMP           DEPTH TEMPERATURE TILT_X TILT_Y INCLINATION
         <dttm>                [m]        [°C]    [°]    [°]         [°]
       1 2015-12-03 12:00:00 -12.9        5.44     -6    -22          59
       2 2015-12-03 16:00:00 -13.5        6.08     -6    -27          64
       3 2015-12-03 19:59:59 -12.6        5.97     -7    -28          63
       4 2015-12-04 00:00:00 -12.3        5.76     -6    -25          74
       5 2015-12-04 04:00:00 -13.1        4.83     -8    -27          65
       6 2015-12-04 07:59:59 -12.7        4.46     -7    -24          78
       7 2015-12-04 12:00:00 -13          4.72     -7    -28          88
       8 2015-12-04 16:00:00 -12.2        5.58     -7    -25          79
       9 2015-12-04 19:59:59 -12.9        6.33     -8    -27          82
      10 2015-12-05 00:00:00 -12.8        6.22     -7    -28          78
      # i 5,371 more rows
      # i 1 more variable: MAGNETIC_FIELD_STRENGTH [nanoteslas]

---

    Code
      dat_
    Output
      # A tibble: 6,931 x 11
         `Date & Time` `Temp(°C)` `Depth(m)` `Tilt-X(°)` `Tilt-Y(°)` `Tilt-Z(°)`   EAL
                 <dbl>      <dbl>      <dbl>       <dbl>       <dbl>       <dbl> <dbl>
       1        42342.       5.26       6.35           1         -69          20     0
       2        42342.       5.91       6.35           3         -64          23     1
       3        42342.       5.69       7.19           3         -63          24     1
       4        42342        5.58       6.35           4         -62          24     0
       5        42342.       4.45       6.35           1         -66          22     0
       6        42342.       4.48       7.19           3         -60          27     1
       7        42342.       4.74       7.19           2         -64          23     1
       8        42343.       5.69       5.52           1         -68          21     1
       9        42343.       6.41       6.35           1         -66          23     0
      10        42343        6.41       7.19           2         -65          24     0
      # i 6,921 more rows
      # i 4 more variables: `Comp.Head(°)` <dbl>, `Comp.4p(°)` <dbl>,
      #   `Inclination(°)` <dbl>, `Mag.vec(nT)` <dbl>

---

    Code
      dat_t_
    Output
      # A tibble: 6,931 x 7
         TIMESTAMP           DEPTH TEMPERATURE TILT_X TILT_Y INCLINATION
         <dttm>                [m]        [°C]    [°]    [°]         [°]
       1 2015-12-03 12:00:00 -6.35        5.26      1    -69          30
       2 2015-12-03 16:00:00 -6.35        5.91      3    -64          32
       3 2015-12-03 19:59:59 -7.19        5.69      3    -63          30
       4 2015-12-04 00:00:00 -6.35        5.58      4    -62          54
       5 2015-12-04 04:00:00 -6.35        4.45      1    -66          40
       6 2015-12-04 07:59:59 -7.19        4.48      3    -60          45
       7 2015-12-04 12:00:00 -7.19        4.74      2    -64          45
       8 2015-12-04 16:00:00 -5.52        5.69      1    -68          43
       9 2015-12-04 19:59:59 -6.35        6.41      1    -66          48
      10 2015-12-05 00:00:00 -7.19        6.41      2    -65          37
      # i 6,921 more rows
      # i 1 more variable: MAGNETIC_FIELD_STRENGTH [nanoteslas]
