…
---

    Code
      decode_op[["histogram_meta"]]
    Output
      # A tibble: 24 x 5
         DATA_TYPE   BIN UPPER_LMIT TAG_NUM TAG_TYPE
         <chr>     <dbl>      <dbl> <chr>   <chr>   
       1 depth         1         50 1234    SuperTag
       2 depth         2        100 1234    SuperTag
       3 depth         3        150 1234    SuperTag
       4 depth         4        200 1234    SuperTag
       5 depth         5        250 1234    SuperTag
       6 depth         6        300 1234    SuperTag
       7 depth         7        350 1234    SuperTag
       8 depth         8        400 1234    SuperTag
       9 depth         9        450 1234    SuperTag
      10 depth        10        550 1234    SuperTag
      # i 14 more rows
…
---

    Code
      decode_op[["histogram_meta"]]
    Output
      # A tibble: 24 x 5
         DATA_TYPE   BIN UPPER_LMIT TAG_NUM TAG_TYPE
         <chr>     <dbl>      <dbl> <chr>   <chr>   
       1 depth         1         50 1234    SuperTag
       2 depth         2        100 1234    SuperTag
       3 depth         3        150 1234    SuperTag
       4 depth         4        200 1234    SuperTag
       5 depth         5        250 1234    SuperTag
       6 depth         6        300 1234    SuperTag
       7 depth         7        350 1234    SuperTag
       8 depth         8        400 1234    SuperTag
       9 depth         9        450 1234    SuperTag
      10 depth        10        550 1234    SuperTag
      # i 14 more rows
…
