…
---

    Code
      summary_data
    Output
      # A tibble: 41 x 5
         start_time          end_time            location_type      latitude longitude
         <dttm>              <dttm>              <chr>                 <dbl>     <dbl>
       1 2013-08-08 00:00:00 2013-08-08 23:59:59 LIGHT_BASED_GEOLO~ 5.61e-44      147.
       2 2013-08-09 00:00:00 2013-08-09 23:59:59 LIGHT_BASED_GEOLO~ 3.30e+ 1      149.
       3 2013-08-10 00:00:00 2013-08-10 23:59:59 LIGHT_BASED_GEOLO~ 6.11e+ 1      147.
       4 2013-08-11 00:00:00 2013-08-11 23:59:59 LIGHT_BASED_GEOLO~ 5.49e+ 1      155.
       5 2013-08-12 00:00:00 2013-08-12 23:59:59 LIGHT_BASED_GEOLO~ 1.89e+ 1      140.
       6 2013-08-13 00:00:00 2013-08-13 23:59:59 LIGHT_BASED_GEOLO~ 5.99e+ 1      148.
       7 2013-08-14 00:00:00 2013-08-14 23:59:59 LIGHT_BASED_GEOLO~ 6.21e+ 1      146.
       8 2013-08-15 00:00:00 2013-08-15 23:59:59 LIGHT_BASED_GEOLO~ 6.21e+ 1      149.
       9 2013-08-16 00:00:00 2013-08-16 23:59:59 LIGHT_BASED_GEOLO~ 5.61e-44      174.
      10 2013-08-17 00:00:00 2013-08-17 23:59:59 LIGHT_BASED_GEOLO~ 3.19e+ 1      152.
      # i 31 more rows
